{
    "progress": {
        "cs": 31,
        "de": 93,
        "es": 95,
        "fr": 96,
        "hu": 42,
        "it": 34,
        "ja": 41,
        "pt": 100,
        "ru": 93,
        "tr": 34
    }
}
